{
  "$schema": "https://docs.renovatebot.com/renovate-schema.json",
  "extends": [
    "github>atlassian-labs/server-platform-renovate-config:backend"
  ],
  "baseBranches": [
    "master",
    "8.9.x"
  ],
  "ignorePaths": [
    "**/amps-maven-plugin/src/it/**"
  ],
  "packageRules": [
    {
      "baseBranchList": [
        "8.9.x"
      ],
      "updateTypes": [
        "major",
        "minor"
      ],
      "enabled": false
    }
  ]
}
